﻿[
	{
		"idnumber":"1001",
		"name":"Mauro Carlesse",
		"role":"Governador -Tocantins",
		"category_ids":"1"
	},
	{
		"idnumber":"1002",
		"name":"Antônio Waldez Góes da Silva",
		"role":"Governador -Amapá/ Presidente do Consórcio Interestadual da Amazônia Legal",
		"category_ids":"1"
	},
	{
		"idnumber":"1003",
		"name":"Flávio Dino de Castro e Costa",
		"role":"Governador - Maranhão",
		"category_ids":"1"
	},
	{
		"idnumber":"1004",
		"name":"Helder Zahluth Barbalho",
		"role":"Governador- Pará",
		"category_ids":"1"
	},
	{
		"idnumber":"1005",
		"name":"Mauro Mendes Ferreira",
		"role":"Governador-Mato Grosso",
		"category_ids":"1"
	},
	{
		"idnumber":"1006",
		"name":"Wilson Miranda Lima",
		"role":"Governador - Amazonas",
		"category_ids":"1"
	},
	{
		"idnumber":"1007",
		"name":"Gladson de Lima Cameli",
		"role":"Governador - Acre",
		"category_ids":"1"
	},
	{
		"idnumber":"1008",
		"name":"Cel. Marcos José Rocha dos Santos",
		"role":"Governador - Rondônia",
		"category_ids":"1"
	},
	{
		"idnumber":"1009",
		"name":"Antônio Olivério Garcia de Almeida",
		"role":"Governador - Roraima",
		"category_ids":"1"
	},
	{
		"idnumber":"1010",
		"name":"Wanderlei Barbosa ",
		"role":"Vice-Governador do Estado do Tocantins",
		"category_ids":"2"
	},
	{
		"idnumber":"1011",
		"name":"Antonio Poincaré Andrade Filho",
		"role":"Presidente da Assembleia Legislativa",
		"category_ids":"2"
	},
	{
		"idnumber":"1012",
		"name":"Helvécio de Brito Maia Neto",
		"role":"Presidente do Tribunal de Justiça",
		"category_ids":"2"
	},
	{
		"idnumber":"1013",
		"name":"Siqueira Campos",
		"role":"Senador da República",
		"category_ids":"2"
	},
	{
		"idnumber":"1014",
		"name":"Irajá Abreu",
		"role":"Senador da República ",
		"category_ids":"2"
	},
	{
		"idnumber":"1015",
		"name":"Kátia Abreu",
		"role":"Senadora da República",
		"category_ids":"2"
	},
	{
		"idnumber":"1016",
		"name":"Carlos Henrique Gaguim",
		"role":"Deputado Federal",
		"category_ids":"2"
	},
	{
		"idnumber":"1017",
		"name":"Célio Moura",
		"role":"Deputado Federal",
		"category_ids":"2"
	},
	{
		"idnumber":"1018",
		"name":"Dulce Miranda ",
		"role":"Deputada Federal",
		"category_ids":"2"
	},
	{
		"idnumber":"1019",
		"name":"Eli Borges",
		"role":"Deputado Federal",
		"category_ids":"2"
	},
	{
		"idnumber":"1020",
		"name":"Osires Damaso",
		"role":"Deputado Federal",
		"category_ids":"2"
	},
	{
		"idnumber":"1021",
		"name":"Professora Dorinha",
		"role":"Deputada Federal",
		"category_ids":"2"
	},
	{
		"idnumber":"1022",
		"name":"Tiago Dimas",
		"role":"Deputado Federal ",
		"category_ids":"2"
	},
	{
		"idnumber":"1023",
		"name":"Vicentinho Jr.",
		"role":"Deputado Federal",
		"category_ids":"2"
	},
	{
		"idnumber":"1024",
		"name":"José Omar de Almeida Júnior",
		"role":"Procurador-Geral de Justiça",
		"category_ids":"2"
	},
	{
		"idnumber":"1025",
		"name":"Fábio Monteiro dos Santos",
		"role":"Defensor Público Geral",
		"category_ids":"2"
	},
	{
		"idnumber":"1026",
		"name":"Cínthia Alves Caetano Ribeiro",
		"role":"Prefeita de Palmas",
		"category_ids":"2"
	},
	{
		"idnumber":"1027",
		"name":"Severiano José Costandrade de Aguiar",
		"role":"Presidente do Tribunal de Contas do Estado do Tocantins",
		"category_ids":"2"
	},
	{
		"idnumber":"1028",
		"name":"Jairo Mariano",
		"role":"Presidente da ATM / Prefeito Municipal de Pedro Afonso",
		"category_ids":"2"
	},
	{
		"idnumber":"1029",
		"name":"Sandro Henrique  Armando",
		"role":"Secretário de Planejamento e Orçamento do Estado do Tocantins",
		"category_ids":"3"
	},
	{
		"idnumber":"1030",
		"name":"José Ribamar Trindade de Oliveira",
		"role":"Secretário de Estado da Casa Civil do Governo do Estado do Acre - Conselho de Administração - Acre",
		"category_ids":"3"
	},
	{
		"idnumber":"1031",
		"name":"Joel Nogueira ",
		"role":"Controlador Geral do Estado - Conselho de Administração - Amapá",
		"category_ids":"3"
	},
	{
		"idnumber":"1032",
		"name":"Marcelo Ignacio da Roza",
		"role":"Chefe de Gabinete do Governador -Conselho de Administração - Amapá",
		"category_ids":"3"
	},
	{
		"idnumber":"1033",
		"name":"Jório Veiga",
		"role":"Secretário de Estado de Planejamento, Desenvolvimento, CT e Inovação - Conselho de Administração - Amazonas",
		"category_ids":"3"
	},
	{
		"idnumber":"1034",
		"name":"Eduardo Costa Taveira",
		"role":"Secretário de Estado do Meio Ambiente e Sustentabilidade - Conselho de Administração - Amazonas",
		"category_ids":"3"
	},
	{
		"idnumber":"1035",
		"name":"Antonio de Jesus Leitão Nunes",
		"role":"Secretário de Estado de Governo - Conselho de Administração - Maranhão ",
		"category_ids":"3"
	},
	{
		"idnumber":"1036",
		"name":"Ricardo Garcia Capelli",
		"role":"Chefe da Representação do Estado do Maranhão em Brasília - Conselho de Administração - Maranhão",
		"category_ids":"3"
	},
	{
		"idnumber":"1037",
		"name":"Basílio Bezerra Guimarães dos Santos",
		"role":"Secretário de Estado do Planejamento e Gestão - Conselho de Administração - Mato Grosso",
		"category_ids":"3"
	},
	{
		"idnumber":"1038",
		"name":"Anildo Cesário Correa",
		"role":"Secretário Adjunto de Planejamento e Gestão de Políticas Públicas-Conselho de Administração - Mato Grosso",
		"category_ids":"3"
	},
	{
		"idnumber":"1039",
		"name":"Parsifal de Jesus Pontes",
		"role":"Chefe da Casa Civil da Governadoria do Estado do Pará - Conselho de Administração - Pará",
		"category_ids":"3"
	},
	{
		"idnumber":"1040",
		"name":"Josenir Gonçalves Nascimento",
		"role":"Coordenador Núcleo de Relações com os Municípios e Entidades de Classe - Conselho de Administração - Pará",
		"category_ids":"3"
	},
	{
		"idnumber":"1041",
		"name":"David Ignácio",
		"role":"Assessor Especial da Governadoria - Conselho de Administração - Rondônia",
		"category_ids":"3"
	},
	{
		"idnumber":"1042",
		"name":"Jefferson Ribeiro da Rocha",
		"role":"Conselho de Administração",
		"category_ids":"3"
	},
	{
		"idnumber":"1043",
		"name":"Emerson Carlos Baú",
		"role":"Secretário de Estado da Agricultura - Conselho de Administração - Roraima",
		"category_ids":"3"
	},
	{
		"idnumber":"1044",
		"name":"Rogério Martins Campos",
		"role":"Presidente do Fundação de Meio Ambiente e Recursos Hídricos - Conselho de Administração - Roraima",
		"category_ids":"3"
	},
	{
		"idnumber":"1045",
		"name":"Rolf Costa Vidal",
		"role":"Chefe da Casa Civil do Estado do Tocantins - Conselho de Administração - Tocantins",
		"category_ids":"3"
	},
	{
		"idnumber":"1046",
		"name":"Sergislei Silva de Moura",
		"role":"Subsecretário de Planejamento e Orçamento -Conselho de Administração - Tocantins",
		"category_ids":"3"
	},
	{
		"idnumber":"1047",
		"name":"Amália Santana",
		"role":"Deputada Estadual",
		"category_ids":"4"
	},
	{
		"idnumber":"1048",
		"name":"Amélio Cayres",
		"role":"Deputado Estadual",
		"category_ids":"4"
	},
	{
		"idnumber":"1049",
		"name":"Claudia Lelis ",
		"role":"Deputada Estadual",
		"category_ids":"4"
	},
	{
		"idnumber":"1050",
		"name":"Cleiton Cardoso",
		"role":"Deputado Estadual",
		"category_ids":"4"
	},
	{
		"idnumber":"1051",
		"name":"Delegado Rérison",
		"role":"Deputado Estadual",
		"category_ids":"4"
	},
	{
		"idnumber":"1052",
		"name":"Eduardo Siqueira Campos",
		"role":"Deputado Estadual",
		"category_ids":"4"
	},
	{
		"idnumber":"1053",
		"name":"Elenil da Penha",
		"role":"Deputado Estadual",
		"category_ids":"4"
	},
	{
		"idnumber":"1054",
		"name":"Fabion Gomes",
		"role":"Deputado Estadual",
		"category_ids":"4"
	},
	{
		"idnumber":"1055",
		"name":"Issam Saado",
		"role":"Deputado Estadual",
		"category_ids":"4"
	},
	{
		"idnumber":"1056",
		"name":"Ivan Vaqueiro",
		"role":"Deputado Estadual",
		"category_ids":"4"
	},
	{
		"idnumber":"1057",
		"name":"Jair Farias",
		"role":"Deputado Estadual",
		"category_ids":"4"
	},
	{
		"idnumber":"1058",
		"name":"Jorge Frederico",
		"role":"Deputado Estadual",
		"category_ids":"4"
	},
	{
		"idnumber":"1059",
		"name":"Leo Barbosa",
		"role":"Deputado Estadual",
		"category_ids":"4"
	},
	{
		"idnumber":"1060",
		"name":"Luana Ribeiro",
		"role":"Deputada Estadual",
		"category_ids":"4"
	},
	{
		"idnumber":"1061",
		"name":"Nilton Franco",
		"role":"Deputado Estadual",
		"category_ids":"4"
	},
	{
		"idnumber":"1062",
		"name":"Olyntho Neto",
		"role":"Deputado Estadual",
		"category_ids":"4"
	},
	{
		"idnumber":"1063",
		"name":"Professor Junior Geo",
		"role":"Deputado Estadual",
		"category_ids":"4"
	},
	{
		"idnumber":"1064",
		"name":"Ricardo Ayres ",
		"role":"Deputado Estadual ",
		"category_ids":"4"
	},
	{
		"idnumber":"1065",
		"name":"Valdemar Júnior",
		"role":"Deputado Estadual",
		"category_ids":"4"
	},
	{
		"idnumber":"1066",
		"name":"Valderez Castelo Branco - Líder do Governo",
		"role":"Deputada Estadual",
		"category_ids":"4"
	},
	{
		"idnumber":"1067",
		"name":"Vanda Monteiro",
		"role":"Deputada Estadual",
		"category_ids":"4"
	},
	{
		"idnumber":"1068",
		"name":"Vilmar de Oliveira",
		"role":"Deputado Estadual",
		"category_ids":"4"
	},
	{
		"idnumber":"1069",
		"name":"Zé Roberto",
		"role":"Deputado Estadual",
		"category_ids":"4"
	},
	{
		"idnumber":"1070",
		"name":"Adriana da Costa Pereira Aguiar",
		"role":"Secretária de Estado da Educação, Juventude e Esportes",
		"category_ids":"5"
	},
	{
		"idnumber":"1071",
		"name":"Carina Teixeira Marinho de Oliveira Rabello",
		"role":"Secretária Particular do Governador",
		"category_ids":"5"
	},
	{
		"idnumber":"1072",
		"name":"César Hanna Halum",
		"role":"Secretário de Estado da Agricultura, Pecuária e Aquicultura",
		"category_ids":"5"
	},
	{
		"idnumber":"1073",
		"name":"Claudinei Aparecido Quaresemin ",
		"role":"Secretário Extraordinário de Parcerias Público-Privadas",
		"category_ids":"5"
	},
	{
		"idnumber":"1074",
		"name":"Cristiano Barbosa Sampaio",
		"role":"Secretário de Estado da Segurança Pública ",
		"category_ids":"5"
	},
	{
		"idnumber":"1075",
		"name":"Divino Allan Siqueira  ",
		"role":"Chefe de Gabinete do Governador",
		"category_ids":"5"
	},
	{
		"idnumber":"1076",
		"name":"Edson Cabral de Oliveira ",
		"role":"Secretário de Estado da Administração ",
		"category_ids":"5"
	},
	{
		"idnumber":"1077",
		"name":"Eduardo Bonagura",
		"role":"Secretário Extraordiário de Políticas de Governo Descentralizadas",
		"category_ids":"5"
	},
	{
		"idnumber":"1078",
		"name":"Heber Luis Fidelis Fernandes",
		"role":"Secretário de Estado da Cidadania e Justiça",
		"category_ids":"5"
	},
	{
		"idnumber":"1079",
		"name":"Ivory de Lira Aguiar Cunha",
		"role":"Secretário Extraordiário de Assuntos Parlamentares",
		"category_ids":"5"
	},
	{
		"idnumber":"1080",
		"name":"Jaizon Veras Barbosa",
		"role":"Comandante-Geral da Polícia Militar do Estado do Tocantins -  PMTO",
		"category_ids":"5"
	},
	{
		"idnumber":"1081",
		"name":"João Francisco de Aguiar (João Neto)",
		"category_ids":"5"
	},
	{
		"idnumber":"1082",
		"name":"José Humberto Marquez Pereira",
		"role":"Assessor Especial do Governador",
		"category_ids":"5"
	},
	{
		"idnumber":"1083",
		"name":"José Messias Alves de Araújo",
		"role":"Secretário de Estado do Trabalho e Desenvolvimento Social ",
		"category_ids":"5"
	},
	{
		"idnumber":"1084",
		"name":"Juliana Passarin",
		"role":"Secretária de Estado da Secretaria Executiva da Governadoria, respondendo pela Agência de Mineração do Estado do Tocantins - AMETO",
		"category_ids":"5"
	},
	{
		"idnumber":"1085",
		"name":"Julio Manoel Silva Neto",
		"role":"Secretário-Chefe da Casa Militar",
		"category_ids":"5"
	},
	{
		"idnumber":"1086",
		"name":"Keliton de Sousa Barbosa ",
		"role":"Secretário Extraordinário de Ações Estratégicas",
		"category_ids":"5"
	},
	{
		"idnumber":"1087",
		"name":"Lázaro Botelho Martins",
		"role":"Assessor de Participações Sociais e Políticas de Governo",
		"category_ids":"5"
	},
	{
		"idnumber":"1088",
		"name":"Luiz Edgar Leão Tolini",
		"role":"Secretário de Estado da Saúde",
		"category_ids":"5"
	},
	{
		"idnumber":"1089",
		"name":"Nivair Vieira Borges",
		"role":"Procurador-Geral do Estado ",
		"category_ids":"5"
	},
	{
		"idnumber":"1090",
		"name":"Reginaldo Leandro da Silva",
		"role":"Comandante-Geral do Corpo de Bombeiros Militar do Estado do Tocantins - CBMTO ",
		"category_ids":"5"
	},
	{
		"idnumber":"1091",
		"name":"Renato de Assunção",
		"role":"Secretário de Estado da Infraestrutura, Cidades e Habitação",
		"category_ids":"5"
	},
	{
		"idnumber":"1092",
		"name":"Renato Jayme da Silva",
		"role":"Secretário de Estado do Meio Ambiente e Recursos Hídricos ",
		"category_ids":"5"
	},
	{
		"idnumber":"1093",
		"name":"Ridoval Darci Chiareloto",
		"role":"Secretário de Estado da Indústria, Comércio e Serviços",
		"category_ids":"5"
	},
	{
		"idnumber":"1094",
		"name":"Rolf Costa Vidal",
		"role":"Secretário-Chefe da Casa Civil",
		"category_ids":"5"
	},
	{
		"idnumber":"1095",
		"name":"Sandro Henrique Armando ",
		"role":"Secretário de Estado da Fazenda e Planejamento",
		"category_ids":"5"
	},
	{
		"idnumber":"1096",
		"name":"Sebastião Vieira de Melo",
		"role":"Secretário de Estado da Comunicação (Interino)",
		"category_ids":"5"
	},
	{
		"idnumber":"1097",
		"name":"Senivan Almeida de Arruda ",
		"role":"Secretário-Chefe da Controladoria Geral do Estado",
		"category_ids":"5"
	},
	{
		"idnumber":"1098",
		"name":"Aldison Wiseman Barros de Lyra (Tom Lyra)",
		"role":"Presidente da Agência do Desenvolvimento do Turismo, Cultura e Economia Criativa - ADETUC",
		"category_ids":"5"
	},
	{
		"idnumber":"1099",
		"name":"Alberto Mendes da Rocha",
		"role":"Presidente da Agência de Defesa Agropecuária do Estado do Tocantins - ADAPEC",
		"category_ids":"5"
	},
	{
		"idnumber":"1100",
		"name":"Aleandro Lacerda Gonçalves",
		"role":"Presidente da Companhia Imobiliária do Estado do Tocantins - TERRATINS",
		"category_ids":"5"
	},
	{
		"idnumber":"1101",
		"name":"Augusto de Rezende Campos",
		"role":"Reitor da Universidade Estadual do Tocantins - UNITINS, respondendo pela Fundação Radiodifusão Educativa\ndo Estado do Tocantins - REDESAT",
		"category_ids":"5"
	},
	{
		"idnumber":"1102",
		"name":"Colemar Natal Câmara Ferreira Nunes de Melo",
		"role":"Presidente do Departamento Estadual de Transito - DETRAN - TO",
		"category_ids":"5"
	},
	{
		"idnumber":"1103",
		"name":"Denise Rocha Domingues",
		"role":"Presidente da Agência de Fomento do Estado do Tocantins - FomenTO",
		"category_ids":"5"
	},
	{
		"idnumber":"1104",
		"name":"Divino José Ribeiro",
		"role":"Presidente do Instituto de Terras do Estado do Tocantins – ITERTINS",
		"category_ids":"5"
	},
	{
		"idnumber":"1105",
		"name":"Gleydson Nato Pereira",
		"role":"Presidente da Junta Comercial do Estado do Tocantins – JUCETINS",
		"category_ids":"5"
	},
	{
		"idnumber":"1106",
		"name":"Juliana Matos de Sousa",
		"role":"Presidente da Agência Tocantinense de Regulação, Controle e Fiscalização de Serviços Públicos - ATR",
		"category_ids":"5"
	},
	{
		"idnumber":"1107",
		"name":"Marcelo Falcão Soares",
		"role":"Presidente do Instituto Natureza do Tocantins - NATURATINS",
		"category_ids":"5"
	},
	{
		"idnumber":"1108",
		"name":"Márcio Antônio da Silveira",
		"role":"Presidente da Fundação de Amparo à Pesquisa do Estado do Tocantins - FAPT",
		"category_ids":"5"
	},
	{
		"idnumber":"1109",
		"name":"Rérison Antônio Castro Leite",
		"role":"Presidente da Agência de Metrologia, Avaliação da Conformidade, Inovação e Tecnologia do Estado do Tocantins - AEM",
		"category_ids":"5"
	},
	{
		"idnumber":"1110",
		"name":"Romis Alberto da Silva ",
		"role":"Presidente da Agência Tocantinense de Saneamento - ATS ",
		"category_ids":"5"
	},
	{
		"idnumber":"1111",
		"name":"Sharlles Fernando Bezerra Lima",
		"role":"Presidente do Instituto de Gestão Previdenciária do Estado do Tocantins – IGEPREV",
		"category_ids":"5"
	},
	{
		"idnumber":"1112",
		"name":"Thiago Pereira Dourado",
		"role":"Presidente do Instituto de Desenvolvimento Rural do Estado do Tocantins – RURALTINS",
		"category_ids":"5"
	},
	{
		"idnumber":"1113",
		"name":"Thiago Pinheiro Maciel",
		"role":"Presidente da Agência de Tecnologia da Informação - ATI-TO",
		"category_ids":"5"
	},
	{
		"idnumber":"1114",
		"name":"Vírgilio da Silva Azevedo ",
		"role":"Presidente da Agência Tocantinense de Transportes e Obras - AGETO\n",
		"category_ids":"5"
	},
	{
		"idnumber":"1115",
		"name":"Gedeon Pitaluga Júnior ",
		"role":"Presidente da OAB-TO",
		"category_ids":"5"
	},
	{
		"idnumber":"1116",
		"name":"Jairo Mariano",
		"role":"Presidente da ATM e Prefeito Municipal de Pedro Afonso",
		"category_ids":"5"
	},
	{
		"idnumber":"1117",
		"name":"Joseph Madeira",
		"role":"Presidente da ACIPA",
		"category_ids":"5"
	},
	{
		"idnumber":"1118",
		"name":"Moisés Pinto Gomes",
		"role":"Diretor Superintendente do SEBRAE/TO",
		"category_ids":"5"
	},
	{
		"idnumber":"1119",
		"name":"Roberto Pires",
		"role":"Presidente da FIETO",
		"category_ids":"5"
	},
	{
		"idnumber":"1120",
		"name":"Rogério Ramos de Sousa",
		"role":"Presidente do Conselho Deliberativo do Sebrae",
		"category_ids":"5"
	},
	{
		"idnumber":"1121",
		"name":"Terciliano Gomes Araújo",
		"role":"Presidente da União dos Vereadores do Tocantins - UVET",
		"category_ids":"5"
	},
	{
		"idnumber":"1122",
		"name":"Marivaldo Gonçalves de Melo",
		"role":"Superintendente  do Banco da Amazônia ",
		"category_ids":"5"
	},
	{
		"idnumber":"1123",
		"name":"Raul Abu Bakr Mohamed Wahbe",
		"role":"Superintendente do Banco do Brasil no Tocantins",
		"category_ids":"5"
	},
	{
		"idnumber":"1124",
		"name":"Silvana Martins Melo",
		"role":"Superintendente da Caixa Econômica Federal",
		"category_ids":"5"
	},
	{
		"idnumber":"1125",
		"name":"Maria Alice Araújo",
		"role":"Secretária de Estado do Planejamento e Gestão - SEPLAG - Conselho de Administração - Acre",
		"category_ids":"6"
	},
	{
		"idnumber":"1126",
		"name":"Jarbas Anute",
		"role":"Diretor de Planejamento da Secretaria e Gestão Estratégico - Câmara de Planejamento e Gestão Estratégico - Acre",
		"category_ids":"6"
	},
	{
		"idnumber":"1127",
		"name":"Eduardo Tavares",
		"role":"Secretário de Estado do Planejamento - Câmara de Planejamento e Gestão Estratégica - Amapá",
		"category_ids":"6"
	},
	{
		"idnumber":"1128",
		"name":"Roberto Santos Matos",
		"role":"Secretário Adjunto de Planejamento - Câmara de Planejamento e Gestão Estratégica - Maranhão",
		"category_ids":"6"
	},
	{
		"idnumber":"1129",
		"name":"Rafael Costa Neves",
		"role":"Gestor da Secretaria de Planejamento - Focal e membro da Câmara de Planejamento e Gestão Estratégica - Mato Grosso",
		"category_ids":"6"
	},
	{
		"idnumber":"1130",
		"name":"Cláudia Cristina Valente",
		"role":"Coordenadora de Planejamento da Secretaria de Estado de Planejamento - Câmara de Planejamento e Gestão Estratégica - Pará",
		"category_ids":"6"
	},
	{
		"idnumber":"1131",
		"name":"Bárbara Rosas da Rocha",
		"role":"Gestora da Superintendência Estado para Resultados (EpR) - Focal e membro da Câmara de Planejamento e Gestão Estratégica - Rondônia",
		"category_ids":"6"
	},
	{
		"idnumber":"1132",
		"name":"Regina Botelho",
		"role":"Câmara de Planejamento e Gestão Estratégica - Tocantins",
		"category_ids":"6"
	},
	{
		"idnumber":"1133",
		"name":"Geraldo Israel Milani Nogueira",
		"role":"Secretário de Meio Ambiente - Câmara de Meio Ambiente e Desenvolvimento Sustentável - Acre",
		"category_ids":"6"
	},
	{
		"idnumber":"1134",
		"name":"Rogério Nobre",
		"role":"Secretário de Meio Ambiente - Câmara de Meio Ambiente e Desenvolvimento Sustentável - Amapá",
		"category_ids":"6"
	},
	{
		"idnumber":"1135",
		"name":"Eduardo Taveira",
		"role":"Secretário de Meio Ambiente - Câmara de Meio Ambiente e Desenvolvimento Sustentável - Amazonas ",
		"category_ids":"6"
	},
	{
		"idnumber":"1136",
		"name":"Rafael Carvalho Ribeiro",
		"role":"Secretário de Meio Ambiente - Câmara de Meio Ambiente e Desenvolvimento Sustentável - Maranhão",
		"category_ids":"6"
	},
	{
		"idnumber":"1137",
		"name":"Alex Marenga",
		"role":"Secretário Executivo Secretaria do Meio Ambiente - Câmara de Meio Ambiente e Desenvolvimento Sustentável - Mato Grosso",
		"category_ids":"6"
	},
	{
		"idnumber":"1138",
		"name":"Mauro O de Oliveira",
		"role":"Secretário de Meio Ambiente - Câmara de Meio Ambiente e Desenvolvimento Sustentável - Pará",
		"category_ids":"6"
	},
	{
		"idnumber":"1139",
		"name":"Elias Rezende",
		"role":"Secretário do Desenvolvimento Ambiental- Câmara de Meio Ambiente e Desenvolvimento Sustentável - Rondônia",
		"category_ids":"6"
	},
	{
		"idnumber":"1140",
		"name":"Renato Jayme da Silva",
		"role":"Secretário de Meio Ambiente do Estado do Tocantins",
		"category_ids":"6"
	},
	{
		"idnumber":"1141",
		"name":"Francis Rinaldi Frigeri",
		"role":"Delegado do GCF- Tocantins",
		"category_ids":"6"
	},
	{
		"idnumber":"1142",
		"name":"Silvania Pinheiro da Silva Diniz",
		"role":"Secretária de Estado da Comunicação - Câmara de Comunicação Pública - Acre",
		"category_ids":"6"
	},
	{
		"idnumber":"1143",
		"name":"Gilberto Ubaiara",
		"role":"Secretário de Estado da Comunicação - Câmara de Comunicação Pública - Amapá",
		"category_ids":"6"
	},
	{
		"idnumber":"1144",
		"name":"Daniela Assayag",
		"role":"Secretária de Estado da Comunicação - Câmara de Comunicação Pública - Amazonas",
		"category_ids":"6"
	},
	{
		"idnumber":"1145",
		"name":"Robson Paz",
		"role":"Secretário Adjunto de Comunicação - Câmara de Comunicação Pública - Maranhão",
		"category_ids":"6"
	},
	{
		"idnumber":"1146",
		"name":"Laice Oliveira",
		"role":"Assessora de Imprensa - Câmara de Comunicação Pública - Mato Grosso",
		"category_ids":"6"
	},
	{
		"idnumber":"1147",
		"name":"Vera Oliveira",
		"role":"Secretário de Estado da Comunicação - Câmara de Comunicação Pública - Pará",
		"category_ids":"6"
	},
	{
		"idnumber":"1148",
		"name":"Lenilson Guedes",
		"role":"Superintendente de Comunicação - Câmara de Comunicação Pública - Rondônia",
		"category_ids":"6"
	},
	{
		"idnumber":"1149",
		"name":"Marcos Marques",
		"role":"Secretário de Estado da Comunicação - Câmara de Comunicação Pública - Roraima",
		"category_ids":"6"
	},
	{
		"idnumber":"1150",
		"name":"Sebastião Vieira de Melo",
		"role":"Secretário de Estado da Comunicação - Tocantins",
		"category_ids":"6"
	},
	{
		"idnumber":"1151",
		"name":"Cel. Paulo Cézar R. dos Santos",
		"role":"Secretário de Estado de Segurança Pública - Câmara de Segurança Pública - Acre",
		"category_ids":"6"
	},
	{
		"idnumber":"1152",
		"name":"Cel . José Carlos Corrêa de souza",
		"role":"Secretário de Estado de Segurança Pública - Câmara de Segurança Pública - Amapá",
		"category_ids":"6"
	},
	{
		"idnumber":"1153",
		"name":"Cel. Louismar de Matos Bonates",
		"role":"Secretário de Estado de Segurança Pública - Câmara de Segurança Pública - Amazonas",
		"category_ids":"6"
	},
	{
		"idnumber":"1154",
		"name":"Jefferson Miler Portela e Silva",
		"role":"Secretário de Estado de Segurança Pública - Câmara de Segurança Pública - Maranhão",
		"category_ids":"6"
	},
	{
		"idnumber":"1155",
		"name":"Alexandre Butamante dos Santos",
		"role":"Secretário de Estado de Segurança Pública - Câmara de Segurança Pública - Mato Grosso",
		"category_ids":"6"
	},
	{
		"idnumber":"1156",
		"name":"Ualame Machado",
		"role":"Secretário de Estado de Segurança Pública - Câmara de Segurança Pública - Pará",
		"category_ids":"6"
	},
	{
		"idnumber":"1157",
		"name":"Cel. José Hélio Pachá",
		"role":"Secretário de Estado de Segurança Pública - Câmara de Segurança Pública - Rondônia",
		"category_ids":"6"
	},
	{
		"idnumber":"1158",
		"name":"Romulo césar Teixeira Saraiva",
		"role":"Secretário de Estado de Segurança Pública - Câmara de Segurança Pública - Roraima",
		"category_ids":"6"
	},
	{
		"idnumber":"1159",
		"name":"Cristiano Barbosa Sampaio",
		"role":"Secretário de Estado de Segurança Pública- Câmara de Segurança Pública - Tocantins",
		"category_ids":"6"
	},
	{
		"idnumber":"1160",
		"name":"Semírames Maria Plácido Dias",
		"role":"Secretária de Estado da Fazenda - Câmara de Gestão Fiscal e Tributária- Acre",
		"category_ids":"6"
	},
	{
		"idnumber":"1161",
		"name":"Jomar Fernandes Pereira",
		"role":"Auditor Fiscal da Secretaria de Estado da Fazenda - Maranhão",
		"category_ids":"6"
	},
	{
		"idnumber":"1162",
		"name":"Rogério Gallo",
		"role":"Secretário de Estado da Fazenda - Câmara de Gestão Fiscal e Tributária - Mato Grosso",
		"category_ids":"6"
	},
	{
		"idnumber":"1163",
		"name":"Alex Del Gilgio",
		"role":"Secretário de Estado da Fazenda - Amazonas",
		"category_ids":"6"
	},
	{
		"idnumber":"1164",
		"name":"Dário José Braga Paim",
		"role":"Secretário Executivo da Receita - Amazonas",
		"category_ids":"6"
	},
	{
		"idnumber":"1165",
		"name":"René O. Souza Júnior",
		"role":"Secretário de Estado da Fazenda - Câmara de Gestão Fiscal e Tributária - Pará",
		"category_ids":"6"
	},
	{
		"idnumber":"1166",
		"name":"Lourival de Barros Barbalho Júnior",
		"role":"Secretário Adjunto do Tesouro da Secretária de Estado da Fazenda - Suplente - Pará",
		"category_ids":"6"
	},
	{
		"idnumber":"1167",
		"name":"Franco Ono",
		"role":"Secretário Adjunto de Finanças -  Câmara de Gestão Fiscal e Tributária - Rondônia",
		"category_ids":"6"
	},
	{
		"idnumber":"1168",
		"name":"Cel. Marco Antônio Alves",
		"role":"Secretário da Fazenda - Câmara de Gestão Fiscal e Tributária - Roraima",
		"category_ids":"6"
	},
	{
		"idnumber":"1169",
		"name":"Márcia Mantovani",
		"role":"Auditora fiscal - Tocantins",
		"category_ids":"6"
	},
	{
		"idnumber":"1170",
		"name":"Mauro Sérgio Ferreira da Cruz",
		"role":"Secretário de Estado da Educação - Câmara de Educação - Acre",
		"category_ids":"6"
	},
	{
		"idnumber":"1171",
		"name":"Daniel Melo Soares Pinho de Carvalho",
		"role":"Secretário Adjunto de Administração da Secretaria de Estado da Educação - Maranhão",
		"category_ids":"6"
	},
	{
		"idnumber":"1172",
		"name":"Leila Carvalho Freire",
		"role":"Secretária de Estado da Educação - Pará",
		"category_ids":"6"
	},
	{
		"idnumber":"1173",
		"name":"Dina Elarrat de Araújo Gama",
		"role":"Secretária Adjunta de Logistíca Escolar da Secretaria de Estado da Educação - Suplente - Pará",
		"category_ids":"6"
	},
	{
		"idnumber":"1174",
		"name":"Luiz Castro Andrade Neto",
		"role":"Secretário de Estado de Educação E qualidade de Ensino - Câmara de Educação - SEDUC - Amazonas",
		"category_ids":"6"
	},
	{
		"idnumber":"1175",
		"name":"Raimundo de Jesus Teixeira Barradas",
		"role":"Secretário Executivo Adjunto Pedagógico -SEDUC - Amazonas ",
		"category_ids":"6"
	},
	{
		"idnumber":"1176",
		"name":"Leila Soares de Souza Perussolo",
		"role":"Secretária de Educação e Desporto - Roraima",
		"category_ids":"6"
	},
	{
		"idnumber":"1177",
		"name":"Adriana da costa Aguiar",
		"role":"Secretária de Estado da Educação - Tocantins",
		"category_ids":"6"
	},
	{
		"idnumber":"1178",
		"name":"Valmir Pinheiro Alves Correia - Suplente",
		"role":"Superintendente - Tocantins",
		"category_ids":"6"
	},
	{
		"idnumber":"1179",
		"name":"Mônica Feres Kanaan Machado",
		"role":"Secretária de Estado da Saúde - Acre",
		"category_ids":"6"
	},
	{
		"idnumber":"1180",
		"name":"Lídia Cunha Schramm",
		"role":"Secretária Adjunta de Assuntos Jurídicos da Secretaria de Estado da Saúde - Maranhão",
		"category_ids":"6"
	},
	{
		"idnumber":"1182",
		"name":"Rodrigo Tobias de Souza Lima",
		"role":"Secretário de Estado da Saúde - Amazonas",
		"category_ids":"6"
	},
	{
		"idnumber":"1183",
		"name":"Cássio roberto do Espirito Santo",
		"role":"Secretário Executivo Adjunto de Atenção Especializada ao Interior -SUSAM - Amazonas",
		"category_ids":"6"
	},
	{
		"idnumber":"1184",
		"name":"Alberto Beltrame",
		"role":"Secretário de Estado de Saúde - Pará",
		"category_ids":"6"
	},
	{
		"idnumber":"1185",
		"name":"Benedita Abreu Leão",
		"role":"Assessora Técnica da Secretária de Estado da Saúde  - Suplente - Pará",
		"category_ids":"6"
	},
	{
		"idnumber":"1186",
		"name":"Cecília Smith Lorenzon",
		"role":"Secretária da Saúde - Roraima",
		"category_ids":"6"
	},
	{
		"idnumber":"1187",
		"name":"Dr. Edgar Tolini",
		"role":"Secretário de Estado da Saúde - Tocantins",
		"category_ids":"6"
	},
	{
		"idnumber":"1188",
		"name":"Luiza Regina Dias Noleto - Suplente",
		"role":"Superintendente de Gestão e Acompanhamento Estratégio - Tocantins",
		"category_ids":"6"
	},
	{
		"idnumber":"2001",
		"name":"Carlos Magno de Souza",
		"role":"IMPRENSA",
		"category_ids":"8"
	},
	{
		"idnumber":"2002",
		"name":"Rafael Miranda Soares Silva",
		"role":"IMPRENSA",
		"category_ids":"8"
	},
	{
		"idnumber":"2003",
		"name":"Renata Miranda de Oliveira Silva",
		"role":"IMPRENSA",
		"category_ids":"8"
	},
	{
		"idnumber":"2004",
		"name":"Wesley Silas Barbosa da Cruz",
		"role":"IMPRENSA",
		"category_ids":"8"
	},
	{
		"idnumber":"2005",
		"name":"SARAH MARY PIRES DE SOUZA",
		"role":"IMPRENSA",
		"category_ids":"8"
	},
	{
		"idnumber":"2006",
		"name":"Arinaldo Araujo da Silva",
		"role":"IMPRENSA",
		"category_ids":"8"
	},
	{
		"idnumber":"2007",
		"name":"Wibergson Estrela Gomes ",
		"role":"IMPRENSA",
		"category_ids":"8"
	},
	{
		"idnumber":"2008",
		"name":"Antônio Oliveira",
		"role":"IMPRENSA",
		"category_ids":"8"
	},
	{
		"idnumber":"2009",
		"name":"Fátima Fernandes",
		"role":"IMPRENSA",
		"category_ids":"8"
	},
	{
		"idnumber":"2010",
		"name":"Hércules Dias ",
		"role":"IMPRENSA",
		"category_ids":"8"
	},
	{
		"idnumber":"2011",
		"name":"Rafael Miranda Soares Silva",
		"role":"IMPRENSA",
		"category_ids":"8"
	},
	{
		"idnumber":"2012",
		"name":"JOANA PINTO DE CASTRO SILVA",
		"role":"IMPRENSA",
		"category_ids":"8"
	},
	{
		"idnumber":"2013",
		"name":"ANTONIO CARLOS GUIMARAES",
		"role":"IMPRENSA",
		"category_ids":"8"
	},
	{
		"idnumber":"2014",
		"name":"Brener Nunes",
		"role":"IMPRENSA",
		"category_ids":"8"
	},
	{
		"idnumber":"2015",
		"name":"Luana Fernanda Rosa Martins",
		"role":"IMPRENSA",
		"category_ids":"8"
	},
	{
		"idnumber":"2016",
		"name":"Elâine Noleto Jardim",
		"role":"IMPRENSA",
		"category_ids":"8"
	},
	{
		"idnumber":"2017",
		"name":"Luís Felipe Claudio Gomes",
		"role":"IMPRENSA",
		"category_ids":"8"
	},
	{
		"idnumber":"2018",
		"name":"Raimundo Batista Lira",
		"role":"IMPRENSA",
		"category_ids":"8"
	},
	{
		"idnumber":"2019",
		"name":"Lia Mara da Conceição Oliveira",
		"role":"IMPRENSA",
		"category_ids":"8"
	},
	{
		"idnumber":"2020",
		"name":"ALESSANDRO FERREIRA GUIMARÃES ",
		"role":"IMPRENSA",
		"category_ids":"8"
	},
	{
		"idnumber":"2021",
		"name":"ALESSANDRO FERREIRA GUIMARÃES ",
		"role":"IMPRENSA",
		"category_ids":"8"
	},
	{
		"idnumber":"2022",
		"name":"Antônio Neves",
		"role":"IMPRENSA",
		"category_ids":"8"
	},
	{
		"idnumber":"2023",
		"name":"Thiago Baltazar dos Santos",
		"role":"IMPRENSA",
		"category_ids":"8"
	},
	{
		"idnumber":"2024",
		"name":"Alex Camera",
		"role":"IMPRENSA",
		"category_ids":"8"
	},
	{
		"idnumber":"2025",
		"name":"Tony Veras",
		"role":"IMPRENSA",
		"category_ids":"8"
	},
	{
		"idnumber":"2026",
		"name":"Dágila Saboia ",
		"role":"IMPRENSA",
		"category_ids":"8"
	},
	{
		"idnumber":"2027",
		"name":"Maykon Jhuly Martins de Paiva",
		"role":"IMPRENSA",
		"category_ids":"8"
	},
	{
		"idnumber":"2028",
		"name":"Luzirene azevedo rodrigues",
		"role":"IMPRENSA",
		"category_ids":"8"
	},
	{
		"idnumber":"2029",
		"name":"JACIARA BARROS TEIXEIRA",
		"role":"IMPRENSA",
		"category_ids":"8"
	},
	{
		"idnumber":"2030",
		"name":"Djavan da Costa Barbosa",
		"role":"IMPRENSA",
		"category_ids":"8"
	},
	{
		"idnumber":"2031",
		"name":"MARCIO A R ROCHA",
		"role":"IMPRENSA",
		"category_ids":"8"
	},
	{
		"idnumber":"2032",
		"name":"Heloísa Cipriano Lima",
		"role":"IMPRENSA",
		"category_ids":"8"
	},
	{
		"idnumber":"2033",
		"name":"laiane evangelista vilanova",
		"role":"IMPRENSA",
		"category_ids":"8"
	},
	{
		"idnumber":"2034",
		"name":"Jesuino Santana de Oliveira Júnior",
		"role":"IMPRENSA",
		"category_ids":"8"
	},
	{
		"idnumber":"2035",
		"name":"Melânia Kássia Barbosa e Silva",
		"role":"IMPRENSA",
		"category_ids":"8"
	},
	{
		"idnumber":"2036",
		"name":"Stephson Kim Nunes Guimarães",
		"role":"IMPRENSA",
		"category_ids":"8"
	},
	{
		"idnumber":"2037",
		"name":"Jose Neto Rodrigues Antunes",
		"role":"IMPRENSA",
		"category_ids":"8"
	},
	{
		"idnumber":"2038",
		"name":"Marcelo Horst de Araujo Silva",
		"role":"IMPRENSA",
		"category_ids":"8"
	},
	{
		"idnumber":"2039",
		"name":"Lourenço Bonifácio",
		"role":"IMPRENSA",
		"category_ids":"8"
	},
	{
		"idnumber":"2040",
		"name":"David Araújo Monteiro da Franca",
		"role":"IMPRENSA",
		"category_ids":"8"
	},
	{
		"idnumber":"2041",
		"name":"Waleson Matheus Mourão de Abreu",
		"role":"IMPRENSA",
		"category_ids":"8"
	},
	{
		"idnumber":"2042",
		"name":"Maria Emília Duarte Soares",
		"role":"IMPRENSA",
		"category_ids":"8"
	},
	{
		"idnumber":"2043",
		"name":"Julio Cesar do Prado Domingos",
		"role":"IMPRENSA",
		"category_ids":"8"
	}
]